1 10 20
100 200 125
201 210 89
900 1000 174
449989 72820 449
914378 895649 476
483223 728883 509
857406 213855 525
33334 101168 351
825921 861334 525
530097 29180 470
279839 957662 525
158978 365442 443
209683 122580 383
329517 629513 509
60314 598343 470
868134 675362 525
864497 3597 525
879200 342317 525
444493 698931 509
184339 502948 449
542210 625075 452
375939 525780 470
205657 961677 525
467881 582661 470
389475 766015 509
235420 185859 443
605800 173231 470
424568 196911 449
717762 575033 509
324043 91975 443
988372 824538 525
527084 581942 452
303814 37456 443
284442 459724 449
492532 555187 470
142615 869883 525
227037 674442 509
330773 332036 353
267204 762653 509
419192 912457 525
265164 163503 443
374828 404088 436
439830 479820 444
572775 242915 470
609268 688762 509
444245 901924 525
397053 151556 443
10499 618173 470
459877 90773 449
930739 742118 525
640372 150223 509
481636 24756 449
62454 771767 509
369269 722962 509
351870 83586 443
707541 604006 509
257791 906927 525
372269 119798 443
395019 669285 509
624283 770350 509
449276 368814 449
16264 25347 282
885346 162908 525
43360 101411 351
323578 451465 449
472789 545135 470
879797 695666 525
409472 677837 509
136785 871319 525
946575 873785 507
758983 137952 509
693518 562304 509
438963 567672 470
202630 93598 383
838778 607452 525
499716 396931 449
556230 597581 434
406856 242369 441
836522 659289 504
183035 446032 449
550950 524149 452
967635 937358 507
709976 220020 509
544623 926640 525
407481 384453 436
556364 773891 509
395225 646946 509
595320 639534 509
933562 247200 525
59313 464812 449
978530 924827 507
893604 711449 525
713547 830896 468
399825 997911 525
480633 950755 525
399226 217553 443
154843 312854 443
720352 325830 509
285339 644916 509
363509 151111 443
298382 152296 443
55591 702244 509
102222 393735 443
698377 307093 509
787258 650361 504
984008 682765 525
321218 395175 441
623045 394153 470
600162 715415 509
253171 553261 470
857450 100015 525
376195 542513 470
673452 475920 509
99772 450981 449
690190 670040 398
325644 928739 525
888755 400355 525
602483 747174 509
555490 862285 525
621026 129224 470
921303 982498 507
65794 763627 509
176693 121465 383
322206 703159 509
613665 980286 525
978164 522573 525
374418 540686 470
69930 161552 383
683836 331394 509
804318 721577 468
373334 31176 443
366766 14361 443
245535 509319 449
307216 395645 441
808274 676791 504
828348 706103 468
473525 745282 509
611299 793599 509
510352 173924 449
582812 150736 470
947203 536707 525
849327 906309 445
11414 325878 443
492502 503544 426
457612 329967 449
452680 516450 470
3838 668854 509
50432 317295 443
145903 884634 525
396332 468422 449
757937 54280 509
222589 226283 368
544331 443846 470
542050 351859 470
845292 514755 525
89065 852688 525
247752 993655 525
412639 726188 509
184956 815484 509
868305 80310 525
77362 668726 509
281614 184563 443
30940 19458 308
380217 869383 525
635525 584973 509
741254 569359 509
561138 871172 525
847562 818772 525
148025 992954 525
131314 65579 354
318337 457346 449
116344 614090 470
526099 29214 470
774868 738735 468
261445 43551 443
863573 442677 525
175638 736873 509
387636 61467 443
446282 53528 449
853233 497360 525
948551 619623 525
365132 242676 441
648552 602797 509
556237 438453 470
516425 330183 470
676872 964267 525
782687 564524 509
632198 493005 509
788999 249386 509
274259 206415 443
70214 472618 449
887100 11658 525
954646 930253 507
160031 30159 383
308957 995906 525
585088 226658 470
272067 134599 443
545611 990645 525
402362 202302 443
