1 10 20
100 200 125
201 210 89
900 1000 174
10 1 20
345 456 134
513 624 137
643 690 145
688 721 171
753 798 153
981 463 179
888 999 174
1235 8413 262
2485 3851 238
3910 7657 262
2435 6572 262
7902 8504 252
8723 8921 216
9100 9875 260
9999 10234 224
68413 351384 443
84601 94251 333
433168 513243 470
8012 38124 324
83412 3812 351
862431 863210 326
134 3821 238
90843 104320 341
43251 53042 340
111354 452623 449
426824 312825 449
521354 432850 470
777888 888777 525
350125 421035 449
971512 982457 427
98756 105213 341
587532 601234 403
47628 52495 309
30124 35126 311
27821 28623 259
12154 13546 276
81324 65324 351
72135 75134 325
89624 91253 315
135021 147361 375
214683 218765 386
235408 245894 368
258463 268513 407
315824 324201 371
333468 334912 335
378314 381250 379
390246 399843 405
420852 431289 418
433512 442569 400
485224 476210 413
496057 500354 395
501453 521420 470
530185 530190 196
533720 574321 452
575019 581026 390
582464 592140 434
600140 602421 403
610243 610876 341
619432 624696 385
634217 635854 416
638425 649878 416
654103 655789 323
666751 666851 261
671255 681242 385
689752 691254 336
701543 712546 504
785130 792463 406
810123 812456 406
825753 826789 344
833452 834761 357
835470 838765 525
838153 839420 344
841237 841567 282
842644 843612 388
845130 846125 401
847632 848844 326
849423 849999 357
850000 855555 419
851461 861263 419
863694 864852 344
870566 875122 432
875623 876884 432
892135 893642 326
904623 911243 476
912435 913522 401
913846 914474 339
915043 915325 339
916763 917563 383
921034 924984 445
925542 926422 339
931467 943651 507
951301 952347 383
953464 954137 308
967813 978163 458
987139 988773 352
989898 998899 440
