1 1000000 525
724633 573563 509
558440 908608 525
661485 435731 509
818805 52837 509
968511 743712 525
472330 963562 525
169326 694319 509
853442 235128 525
652475 767129 504
444886 364599 449
390601 713200 509
26140 842645 525
328371 266800 407
192721 468178 449
539072 950747 525
715504 705160 411
980011 26018 525
953845 941870 414
747982 850289 525
60831 406752 443
176686 746861 509
330919 600180 470
480586 725866 509
637101 938666 525
280882 801952 509
165439 529738 470
922683 621314 525
103413 512052 470
267081 990044 525
703557 873013 525
579767 735046 509
730659 648729 504
437420 490765 444
403162 574794 470
384850 206805 443
286349 61677 443
892572 404053 525
125155 397929 443
731975 629599 504
329139 496397 449
940679 820239 525
894346 849648 445
792069 18241 509
733173 191977 509
71710 102976 351
985965 728255 525
214896 585507 470
510601 376386 449
817648 524660 509
835436 321026 509
174565 717204 509
613148 784309 509
114113 1010 354
398439 875870 525
133061 548672 470
68557 200367 383
347270 782962 509
405017 272433 441
592975 283554 470
142399 651420 509
759495 22969 509
90589 855853 525
174715 87032 383
37676 578471 470
277780 816808 509
411988 206961 449
525779 696522 509
173644 892591 525
918216 209177 525
68552 701557 509
749698 949631 525
947850 187681 525
389120 49366 443
925548 474625 525
561935 962132 525
357299 32273 443
142738 559672 470
931319 757008 525
935488 83502 525
119901 434194 449
915431 530122 525
387183 477223 449
754608 707581 424
469874 431053 444
936626 84756 525
969062 672523 525
483101 2241 449
491971 546875 470
748583 195978 509
771835 407557 509
885859 997217 507
229418 74793 386
292289 497409 449
619862 852999 525
657403 788041 504
858370 565749 525
728706 671542 504
314758 833043 509
45141 845641 525
816258 270535 509
572629 657266 509
533665 66510 470
625844 517467 452
561861 787260 509
582148 817610 509
664784 355327 509
440874 663162 509
976295 148086 525
160978 151773 383
128943 411101 449
173041 815637 509
702871 858275 525
492394 120360 449
769027 508193 509
66809 699882 509
431229 118567 449
505465 248600 449
247852 591566 470
907809 736939 525
317108 645632 509
995549 731864 525
807216 709463 468
824965 794384 468
54767 17927 340
476113 671574 509
117965 585862 470
869679 972951 507
581319 757967 509
203137 825450 509
114794 26969 354
977332 295514 525
751702 496134 509
623793 913297 525
681814 682020 323
730121 635121 504
178601 34368 383
539965 148064 470
960202 27595 525
143539 367085 443
849003 233646 525
756737 405166 509
898054 654643 525
214864 266467 443
189555 182928 347
751176 254206 509
914730 457324 525
846780 313084 525
709203 898855 525
42610 363132 443
603363 140434 470
665419 704087 442
10857 840823 525
921694 289929 525
517303 76259 470
623428 288479 470
532738 608355 452
429636 452580 400
921942 778926 525
194449 610020 470
684404 642372 442
252413 278254 407
683299 53330 509
393215 344607 441
746516 96742 509
573251 95287 470
25581 883375 525
87924 368995 443
519536 512636 439
302423 742605 509
962061 557682 525
551902 351058 470
111095 144271 375
929249 675540 525
730037 921688 525
310881 746395 509
639610 145491 509
290242 977789 525
556171 980022 525
812392 739836 468
412290 767775 509
441669 342945 449
858428 409581 525
18673 786042 509
681155 600430 509
947556 651906 525
251341 494399 449
891942 503749 525
236193 419612 449
104876 759109 509
170798 368208 443
973144 33988 525
831454 488171 509
725144 236216 509
917862 454870 525
56095 212026 383
403030 984202 525
324844 141748 443
795300 704234 504
612944 966955 525
693765 72443 509
338137 188256 443
775260 540111 509
931515 314120 525
620981 494862 470
391105 9115 443
790672 796145 468
146940 251899 443
664514 708273 504
911239 625031 525
471835 601407 470
673483 359436 509
56820 990010 525
687394 750321 504
790134 668994 504
545950 951259 525
988777 169571 525
180754 364038 443
429686 745310 509
372086 568557 470
973906 541464 525
981795 540295 525
340649 620637 470
609624 967119 525
771460 427806 509
213113 951524 525
948151 810995 525
843335 78331 525
95850 919486 525
878995 739250 525
570336 46171 470
691118 268318 509
315210 850351 525
105967 539552 470
182066 239323 443
222323 565902 470
364088 882296 525
664412 257783 509
737599 793706 468
759048 164007 509
79399 111124 354
551755 764916 509
472434 24004 449
715286 624075 509
378529 808318 509
525130 66354 470
333150 838037 525
383091 962604 525
330716 806534 509
718808 915440 525
658130 482222 509
394409 233329 441
276304 125218 443
463032 634881 509
691009 299813 509
91853 6861 351
193420 597664 470
796317 295745 509
938416 970001 507
914845 828893 525
300038 119320 443
450196 727838 509
555566 928889 525
723980 631325 504
972546 153808 525
888606 807189 525
554945 431163 470
290529 858995 525
797700 471159 509
157742 889858 525
619257 930942 525
436894 377859 449
600126 606952 403
947661 788576 525
6431 206637 383
565331 485651 470
859587 947367 507
752850 492943 509
663405 903725 525
109397 172985 383
167885 235640 443
256968 936303 525
39823 532573 470
718771 459649 509
549773 680707 509
223598 570201 470
807593 740136 468
106444 233423 443
284656 808911 509
20618 785130 509
68468 937919 525
797912 963776 525
533583 439267 470
502310 389852 449
151426 89251 375
16668 439294 449
145822 768913 509
147998 3064 375
761406 750958 424
248814 194627 443
519625 295601 470
992502 3998 525
701626 504468 509
628559 357853 509
817661 829177 450
281241 369546 441
571523 679886 509
591745 115527 470
231030 97533 443
853933 238625 525
973604 428546 525
717341 444049 509
468400 907532 525
566380 843077 525
335270 672512 509
432956 12149 449
534872 347459 470
595651 928755 525
717230 154868 509
765741 711094 424
1014 641882 509
817956 717544 468
691409 180540 509
979813 804250 525
106361 948068 525
553969 890916 525
342224 688892 509
604889 642805 509
204464 201405 342
242072 103740 443
939575 427119 525
81778 814041 509
121155 973387 525
246605 49806 443
724152 484064 509
447976 62549 449
553302 319442 470
564446 332046 470
69057 743008 509
912201 438194 525
359852 197959 443
651197 225632 509
649386 518942 509
556247 367027 470
407154 810058 509
314143 791702 509
174506 492025 449
650475 727503 504
932240 536355 525
316495 824003 509
224161 523969 470
924741 786567 525
233398 562617 470
674617 874358 525
959887 202434 525
429606 430676 312
437657 961038 525
150894 937532 525
383409 153816 443
894255 622644 525
775674 114122 509
972545 634717 525
822447 602671 509
559173 726372 509
931037 986739 507
351525 603918 470
10304 700831 509
273710 490659 449
36765 820401 509
224662 274447 443
26643 943747 525
30011 647838 509
751628 953041 525
347124 256292 441
478268 450922 444
307838 947524 525
914937 803871 525
743087 582566 509
277063 27186 443
728800 670319 504
75848 270682 443
418357 12750 449
315035 304448 384
177369 837165 509
684508 708757 504
140781 951637 525
563892 63240 470
412753 44767 449
909093 232023 525
226241 159506 386
49116 223273 386
481899 453456 444
556502 855297 525
53711 608662 470
534786 765440 509
486721 449696 444
681296 471775 509
166029 528294 470
582305 44898 470
560996 648310 509
282115 126248 443
73687 764337 509
904321 406645 525
914019 943819 507
612849 899240 525
30381 768487 509
174380 262827 443
708343 648140 504
827786 14913 509
453718 138301 449
708773 500914 509
130168 730284 509
581501 361423 470
473402 485224 413
733103 884816 525
247538 417705 449
812726 239712 509
481213 21928 449
920880 684898 525
425023 689673 509
526289 475981 470
9108 576858 470
172672 626960 509
563630 664825 509
697425 901660 525
767774 382451 509
698335 810267 504
658798 891803 525
427552 531913 470
159142 944238 525
556235 420869 470
938266 222147 525
837586 660231 504
658639 252482 509
798971 875247 525
320947 777138 509
627927 285054 509
363238 922450 525
239522 975209 525
406438 953233 525
574890 282501 470
520845 973724 525
117865 494838 449
109024 913159 525
581512 974471 525
182821 261703 443
274219 596734 470
187979 942288 525
644256 111866 509
788384 946119 525
103984 398752 443
601067 871638 525
904598 883958 445
623575 488933 470
157165 922953 525
391347 592286 470
256839 145345 443
31999 988533 525
530236 410181 470
194425 8393 383
100781 59994 351
531215 67493 470
613130 27400 470
776612 438589 509
755538 866239 525
826925 100706 509
214591 977865 525
146158 251488 443
196184 415994 449
201896 975250 525
876414 179325 525
31119 866380 525
475607 63483 449
510579 48787 449
566730 364660 470
590099 877908 525
907243 269982 525
102964 136786 354
395491 982139 525
694761 771458 504
513452 275529 470
388735 226241 443
674610 558775 509
14457 34552 311
736710 118064 509
795620 607087 509
618972 757427 509
289913 478193 449
870263 690771 525
93500 98955 328
878793 370398 525
467567 193528 449
8077 376462 443
495753 375596 449
959491 395001 525
333786 187705 443
166271 436922 449
28529 172829 383
543146 178160 470
701407 997093 525
776291 899971 525
