623558 589075 447
978849 402405 525
32492 832877 509
366269 640886 509
692096 551516 509
636066 632555 416
293420 762762 509
90100 320875 443
8106 897416 525
816098 582768 509
867358 213467 525
954319 844374 507
576225 708308 509
776850 690622 504
579705 826196 509
717753 835202 468
869119 627389 525
195497 353554 443
259452 468220 449
751866 420917 509
553244 279546 470
870634 507909 525
699282 433344 509
252309 318691 407
401563 806540 509
502164 353518 449
78046 172086 383
147426 858710 525
108614 47314 354
840302 927207 476
545688 406999 470
523510 536367 408
44268 14172 324
417597 304645 449
791418 149673 509
632058 717879 504
233284 764790 509
316252 864445 525
283546 912315 525
154260 657262 509
782473 935327 525
61865 991723 525
704363 702956 349
591545 834319 509
440295 389725 449
391233 63373 443
842388 216318 525
659539 199218 509
357750 528974 470
624887 438026 470
870292 354930 525
159016 913130 525
53019 761157 509
963748 598970 525
84550 24338 351
385091 462628 449
796420 560305 509
396264 748125 509
508210 325298 449
996351 264376 525
239288 911351 525
563913 685855 509
162107 222200 386
43691 530778 470
53175 93699 351
117041 352661 443
157032 897216 525
361419 518399 470
997994 192689 525
350299 588645 470
807571 578586 509
759906 906612 525
75801 871073 525
146079 882428 525
366563 379813 423
393848 614010 470
353766 749965 509
307416 958772 525
782990 201178 509
984346 609497 525
570532 459294 470
526519 411845 470
108444 995974 525
850532 439886 525
726689 927057 525
17569 655445 509
461719 47437 449
482297 64700 449
696175 123569 509
57229 262449 443
778763 462901 509
583915 893876 525
150576 793161 509
46643 790753 509
245958 867238 525
305819 371658 441
762925 688179 504
373940 421631 449
181201 385727 443
397582 72543 443
908802 525962 525
980867 955735 458
998817 9248 525
533908 294987 470
484335 749327 509
260194 924884 525
758799 726488 424
635186 352863 509
720130 244058 509
773858 690693 504
772929 260457 509
138441 985535 525
291392 832309 509
587686 761388 509
366619 859585 525
176190 457203 449
115616 179534 383
398077 530570 470
515773 84188 470
76180 388545 443
184093 48504 383
496676 56469 449
638530 625710 509
663747 128063 509
968852 370063 525
222635 597860 470
782210 525476 509
836285 580695 509
887911 827560 525
454753 642481 509
115156 170861 383
909041 495182 525
731888 975362 525
482932 665785 509
874498 474456 525
135864 328512 443
312744 441046 449
954513 897474 507
565580 841989 525
698304 591411 509
604260 734874 509
995757 385132 525
5957 743042 509
834118 388231 509
563206 964195 525
168766 463911 449
967479 975803 458
225067 643098 509
161592 825344 509
253115 218590 443