1 10 20
100 200 125
201 210 89
900 1000 174
3 1 8
999907 999996 259
155 958 179
68 63 108
8211 8215 159
9953 9961 92
502948 502954 134
595537 595531 98
941372 941385 202
563377 563375 253
1657 1653 92
206989 206992 174
67281 67277 118
626191 626186 85
106273 106276 80
522898 522905 134
69493 69493 56
690729 690727 199
869252 869259 189
229319 229317 200
703092 703093 155
438550 438549 175
402768 402757 162
799143 799149 194
668802 668803 111
35638 35650 174
542785 542792 152
357324 357317 180
350982 350990 198
764031 764040 150
456047 456050 157
574639 574651 284
390552 390567 206
394733 394736 193
676955 676957 186
210630 210638 143
20614 20626 212
194539 194536 254
60121 60132 211
224352 224357 94
245241 245242 151
791957 791955 119
44962 44977 208
266667 266678 195
512482 512493 214
533529 533619 320
129170 129211 287
870500 870501 189
910114 910117 202
301679 301643 265
755974 756041 318
425993 426024 219
267203 267276 239
108824 108906 186
574870 574906 222
184330 184328 254
944377 944403 264
533372 533472 377
429789 429827 219
973371 973480 202
464422 464483 338
32226 32298 192
305435 306386 278
52881 52955 278
355328 355642 379
228594 229091 275
598039 598279 341
243239 243748 319
690940 691031 336
75373 76034 294
564945 565842 328
105388 106254 354
975262 975388 228
342290 343249 353
296398 297377 327
14794 15787 271
722159 721927 318
710283 711229 380
174335 174926 303
622125 622229 310
638852 639235 323
698869 699295 305
69990 70300 281
363937 367869 361
121337 130525 344
162256 165038 339
506633 509433 382
871673 876063 432
656598 665147 429
196671 201747 342
647021 647915 341
876708 880234 401
509082 517130 470
5145 10115 262
525179 534241 408
877322 884928 401
853238 858871 419
348898 350044 366
626550 633192 385
328910 338881 366
19696 22946 274
430897 436898 387
6 999999 525
